backend\controllers\MedicationPlanController.class
backend\hessian\Dispenser.class
backend\entities\Activities.class
backend\repositories\MedicationPlanRepo.class
backend\entities\Patient.class
backend\hessian\DispenserInterface.class
backend\controllers\handlers\exceptions\model\DuplicateResourceException.class
backend\controllers\CaregiverController.class
backend\controllers\handlers\exceptions\model\ParameterValidationException.class
backend\entities\Caregiver.class
backend\websocket\Config.class
backend\repositories\DoctorRepo.class
backend\repositories\MedicationRepo.class
backend\dtos\builders\MedicationBuilder.class
backend\rabbitMQ\ConfigQ.class
backend\hessian\ConfigHessian.class
backend\BackendApp.class
backend\controllers\PatientController.class
backend\services\CaregiverService.class
backend\repositories\CaregiverRepo.class
backend\dtos\MedicationDTO.class
backend\dtos\DoctorDTO.class
backend\repositories\UserRepo.class
backend\repositories\PatientRepo.class
backend\services\DoctorService.class
backend\controllers\handlers\exceptions\model\EntityValidationException.class
backend\dtos\builders\ActivityBuilder.class
backend\services\MedicationPlanService.class
backend\dtos\MedicationPlanDTO.class
backend\entities\Medication.class
backend\services\MedicationService.class
backend\controllers\handlers\RestExceptionHandler.class
backend\dtos\builders\MedicationPlanBuilder.class
backend\dtos\builders\PatientBuilder.class
backend\entities\Doctor.class
backend\controllers\UserController.class
backend\controllers\MedicationController.class
backend\services\UserService.class
backend\controllers\handlers\exceptions\model\CustomException.class
backend\dtos\CaregiverDTO.class
backend\controllers\handlers\exceptions\model\ResourceNotFoundException.class
backend\dtos\builders\DoctorBuilder.class
backend\services\ActivityService.class
backend\entities\Users.class
backend\dtos\builders\UserBuilder.class
backend\dtos\UserDTO.class
backend\rabbitMQ\Receive.class
backend\dtos\ActivityDTO.class
backend\controllers\DoctorController.class
backend\dtos\PatientDTO.class
backend\entities\MedicationPlan.class
backend\repositories\ActivityRepo.class
backend\controllers\handlers\exceptions\model\ExceptionHandlerResponseDTO.class
backend\dtos\builders\CaregiverBuilder.class
backend\services\PatientService.class
